<?xml version="1.0" encoding="utf-8"?>
<svg viewBox="0 0 250 202" height="202.0pt" width="250.0pt" version="1.1" xmlns="http://www.w3.org/2000/svg">
  <path d="M 0.00 0.00 L 250.00 0.00 L 250.00 202.00 L 0.00 202.00 L 0.00 0.00 Z" fill="#ffffff" style="fill-opacity: 0.28;"/>
  <path d="M 99.27 20.12 C 99.89 19.83 100.57 19.94 101.31 20.46 C 101.31 22.16 101.25 23.87 101.24 25.58 C 100.61 25.99 99.97 26.04 99.33 25.73 C 98.74 24.02 99.21 21.91 99.27 20.12 Z" fill="#3b3a38" style="fill-opacity: 0.28;"/>
  <path d="M 95.12 25.08 C 97.18 25.60 98.11 27.67 100.46 27.84 C 101.01 28.29 101.25 29.00 101.18 29.95 C 101.29 35.26 101.07 40.59 101.27 45.89 C 101.31 46.55 101.67 47.12 102.36 47.61 C 105.13 49.72 108.93 50.25 112.00 52.00 C 119.70 56.21 127.67 60.26 134.96 65.14 L 135.31 65.96 L 134.87 66.85 C 132.78 67.47 130.50 64.26 128.49 63.66 C 125.19 62.84 122.54 61.03 119.64 59.37 C 112.56 55.72 105.47 52.45 98.61 48.42 C 96.46 48.03 93.50 50.62 91.61 51.63 C 86.47 55.52 81.47 59.51 76.20 63.21 C 74.07 65.61 71.60 67.00 69.06 68.85 C 68.00 64.54 71.79 63.53 74.54 61.54 C 76.64 59.42 78.34 58.29 81.00 56.97 C 84.50 52.79 89.66 51.26 93.27 47.28 C 94.80 45.38 96.85 45.39 99.08 45.26 C 99.24 40.19 99.18 35.06 99.12 29.99 C 98.85 27.34 94.36 28.39 95.12 25.08 Z" fill="#393735" style="fill-opacity: 0.28;"/>
  <path d="M 102.07 29.10 C 103.52 29.42 106.96 29.46 106.66 31.65 C 105.28 32.88 100.75 31.17 102.07 29.10 Z" fill="#8f8e8d" style="fill-opacity: 0.28;"/>
  <path d="M 105.17 63.80 C 106.34 64.68 109.93 65.30 109.90 66.91 C 105.61 68.17 102.01 63.17 98.00 62.48 C 95.45 63.56 91.88 65.64 90.36 67.89 C 92.84 66.92 94.65 65.04 97.21 64.24 C 101.93 64.14 105.03 67.67 109.94 69.09 L 110.02 70.06 C 108.27 71.32 106.13 69.21 104.46 68.56 C 102.09 67.60 99.54 66.51 97.09 65.93 C 93.60 67.46 90.70 71.29 86.97 71.99 C 87.21 70.22 88.89 69.37 86.43 68.58 C 88.21 65.93 91.98 64.39 94.43 62.38 C 97.02 59.44 102.38 62.42 105.17 63.80 Z" fill="#716e6c" style="fill-opacity: 0.28;"/>
  <path d="M 192.19 65.36 C 195.05 64.91 197.40 68.26 196.86 70.88 C 196.21 72.09 195.02 73.02 194.15 74.11 C 194.72 75.70 195.94 77.29 196.02 78.98 C 196.06 82.10 195.73 85.10 196.56 88.17 C 196.66 89.64 197.94 92.50 195.30 91.83 C 194.97 88.67 194.76 85.51 194.64 82.33 C 193.12 82.74 193.47 85.83 193.20 87.02 C 192.85 88.81 194.53 89.81 193.67 91.70 C 192.42 91.66 191.72 90.90 190.69 90.32 C 188.62 90.24 186.51 91.50 184.41 91.63 C 183.89 90.15 185.06 86.37 183.00 86.30 C 181.50 87.40 181.86 90.10 181.76 91.77 L 181.18 91.67 C 180.88 84.82 183.11 79.63 187.80 74.75 C 187.80 73.54 187.47 72.37 187.42 71.16 C 187.87 68.61 189.90 66.44 192.19 65.36 Z" fill="#63548a" style="fill-opacity: 0.28;"/>
  <path d="M 97.14 67.32 C 100.69 67.68 103.70 69.77 106.94 71.02 C 108.06 71.55 109.30 71.65 109.87 72.87 C 105.02 73.63 101.87 70.27 98.00 68.70 C 95.61 69.61 93.55 71.71 91.06 72.20 C 90.95 71.45 91.38 70.81 92.32 70.26 C 93.94 69.07 95.04 67.70 97.14 67.32 Z" fill="#686562" style="fill-opacity: 0.28;"/>
  <path d="M 116.64 69.37 C 118.37 70.35 118.25 73.28 118.32 75.00 C 117.95 81.87 118.88 88.32 117.55 94.99 C 117.52 97.12 116.57 100.37 117.77 102.17 C 119.84 101.53 121.69 100.52 122.69 98.51 C 123.41 98.32 124.14 98.16 124.88 98.03 C 125.31 95.91 121.82 97.74 122.32 95.31 C 124.60 93.92 127.12 98.96 128.72 95.97 C 126.94 94.07 124.08 94.15 122.16 92.29 C 126.61 90.69 128.20 96.17 132.05 94.63 C 144.93 87.41 157.80 80.28 171.37 74.43 L 171.91 74.56 C 171.92 76.12 169.57 76.65 168.49 77.47 C 140.22 91.82 113.28 106.93 84.52 120.50 C 75.77 126.65 65.68 129.96 56.62 135.57 C 52.55 136.43 50.51 139.76 46.25 139.79 C 45.89 133.54 46.45 127.23 45.94 120.99 C 45.73 119.52 46.11 118.17 46.91 116.94 C 47.90 115.94 49.61 115.65 50.41 114.54 C 50.72 113.61 51.15 112.76 51.69 111.97 C 52.76 112.31 53.79 112.73 54.79 113.22 C 56.14 117.75 50.99 116.15 50.98 119.98 C 50.94 125.31 49.95 130.55 50.21 135.87 C 51.90 135.89 53.53 134.74 55.01 134.00 C 71.92 125.57 89.29 116.87 105.89 107.89 C 108.77 106.76 111.20 104.98 114.18 104.02 C 114.45 93.14 114.07 81.99 114.12 71.06 C 114.38 69.73 115.27 68.99 116.64 69.37 Z" fill="#3b3935" style="fill-opacity: 0.28;"/>
  <path d="M 195.22 69.06 C 197.57 69.06 194.56 73.60 193.17 72.81 C 193.03 71.66 194.46 69.90 195.22 69.06 Z" fill="#c1bbd4" style="fill-opacity: 0.28;"/>
  <path d="M 97.26 70.39 C 101.56 71.16 105.44 73.88 109.67 75.22 L 109.85 75.94 C 104.86 77.15 102.54 72.92 97.99 72.45 C 93.94 73.45 90.60 77.01 86.99 79.07 L 86.15 78.87 C 85.71 77.88 85.94 77.18 86.86 76.77 C 90.58 75.00 93.52 72.03 97.26 70.39 Z" fill="#6c6967" style="fill-opacity: 0.28;"/>
  <path d="M 189.18 70.47 C 189.91 70.34 191.20 72.39 190.79 73.02 C 189.10 73.97 188.23 71.68 189.18 70.47 Z" fill="#d8d0e7" style="fill-opacity: 0.28;"/>
  <path d="M 128.59 74.41 C 130.14 75.90 135.23 75.80 134.59 78.49 L 133.12 78.62 C 129.48 76.91 126.23 74.70 122.29 73.62 C 123.50 70.94 126.97 73.50 128.59 74.41 Z" fill="#7a7977" style="fill-opacity: 0.28;"/>
  <path d="M 76.35 75.74 C 76.70 78.21 71.58 79.29 70.19 81.24 C 70.81 81.48 71.43 81.72 72.06 81.94 C 71.78 83.11 70.72 83.77 70.29 84.90 C 72.87 85.13 73.61 81.54 76.30 81.65 C 76.96 84.08 71.92 86.07 70.24 87.25 C 70.78 87.60 71.35 87.92 71.95 88.18 C 71.87 89.12 70.09 92.14 69.04 92.01 C 67.17 88.86 69.18 84.84 68.18 81.20 C 70.02 79.08 73.45 75.56 76.35 75.74 Z" fill="#5d5b58" style="fill-opacity: 0.28;"/>
  <path d="M 122.95 75.93 C 125.76 75.20 128.27 78.32 131.10 78.83 C 132.73 79.25 135.43 79.79 135.13 82.00 C 131.99 81.88 128.80 79.33 125.81 78.27 C 124.89 77.65 122.71 77.32 122.95 75.93 Z" fill="#5a5855" style="fill-opacity: 0.28;"/>
  <path d="M 192.96 76.05 C 194.22 76.02 194.79 78.07 194.99 79.06 C 195.50 80.74 193.17 81.78 191.85 81.85 C 191.65 81.10 192.22 80.34 193.55 79.57 C 193.61 78.37 192.80 77.30 192.96 76.05 Z" fill="#c4bbda" style="fill-opacity: 0.28;"/>
  <path d="M 187.19 76.99 C 189.05 76.93 187.42 79.79 186.20 78.99 C 185.86 78.22 186.19 77.56 187.19 76.99 Z" fill="#b8afcb" style="fill-opacity: 0.28;"/>
  <path d="M 97.26 79.45 C 100.98 80.89 105.67 83.55 109.64 85.22 L 109.86 85.93 C 105.55 87.00 102.66 83.29 98.95 82.05 C 96.82 81.28 95.35 82.51 93.85 83.81 C 92.11 85.42 90.19 86.20 88.98 88.10 L 86.94 87.94 L 87.03 87.05 C 89.92 83.98 94.03 82.20 97.26 79.45 Z" fill="#6e6d6b" style="fill-opacity: 0.28;"/>
  <path d="M 122.20 79.26 C 123.79 78.80 124.96 78.65 126.45 79.52 C 129.25 81.06 132.04 82.63 134.82 84.20 L 135.02 85.10 C 132.10 85.93 131.04 83.36 128.60 82.49 C 126.27 81.75 124.16 80.72 122.20 79.26 Z" fill="#716e6c" style="fill-opacity: 0.28;"/>
  <path d="M 123.97 82.05 C 126.28 83.11 128.28 84.43 130.81 85.02 C 132.31 85.94 136.02 86.63 135.00 89.06 C 132.85 89.15 131.02 86.63 128.90 86.08 C 127.08 85.09 123.46 84.77 122.28 83.21 C 122.77 82.65 123.33 82.26 123.97 82.05 Z" fill="#706f6d" style="fill-opacity: 0.28;"/>
  <path d="M 96.98 83.45 C 101.13 84.30 105.16 86.16 108.85 88.21 L 109.04 89.19 C 105.55 89.48 101.21 86.17 97.89 85.07 C 96.31 85.40 95.28 86.66 93.57 86.52 C 93.09 84.66 95.68 84.04 96.98 83.45 Z" fill="#5e5b58" style="fill-opacity: 0.28;"/>
  <path d="M 76.53 85.20 C 77.17 86.24 74.01 88.55 73.14 87.89 C 72.49 86.87 75.57 84.20 76.53 85.20 Z" fill="#5c5b59" style="fill-opacity: 0.28;"/>
  <path d="M 98.04 86.47 C 101.02 87.29 103.60 89.34 106.49 90.46 C 107.71 91.11 109.34 91.19 109.07 93.01 C 105.46 92.83 101.97 88.81 98.01 89.14 C 94.38 88.55 93.18 91.36 90.04 92.21 C 89.28 90.50 91.43 90.18 92.44 89.38 C 94.23 88.29 95.65 85.87 98.04 86.47 Z" fill="#63605c" style="fill-opacity: 0.28;"/>
  <path d="M 88.98 88.10 L 90.99 87.99 C 91.15 89.49 88.65 90.37 88.06 91.77 L 90.04 92.21 C 89.56 93.24 88.81 94.05 88.20 95.00 C 90.49 94.65 92.19 92.24 94.20 91.14 C 95.37 90.45 97.52 88.96 98.74 90.12 C 100.71 91.54 102.93 91.98 105.18 92.75 C 106.47 93.29 108.27 93.69 108.36 95.38 C 105.14 96.02 101.22 92.55 97.99 91.91 C 95.02 91.62 92.75 94.85 90.08 96.07 C 88.84 96.59 87.37 98.78 86.02 98.01 C 86.70 95.50 86.44 92.97 86.54 90.45 C 87.31 89.62 88.16 88.89 88.98 88.10 Z" fill="#686664" style="fill-opacity: 0.28;"/>
  <path d="M 209.00 88.61 C 211.51 91.21 210.12 92.30 209.15 94.99 C 210.13 98.00 210.07 101.13 211.02 104.15 L 210.55 105.27 L 209.11 105.92 C 209.95 107.11 210.29 108.18 210.13 109.15 C 209.35 111.73 209.38 114.39 209.97 117.00 L 211.16 117.06 C 211.83 114.55 210.72 111.26 210.66 108.61 L 211.83 107.85 C 211.95 110.24 211.95 112.62 212.16 115.01 C 213.14 115.42 214.22 115.62 215.41 115.61 C 215.44 117.51 216.48 120.95 214.22 121.88 C 214.51 119.84 215.13 117.92 212.54 117.20 C 212.56 120.63 211.16 119.65 208.98 118.42 C 208.17 118.92 207.89 119.76 208.14 120.92 C 208.24 122.85 211.75 122.30 211.84 123.90 C 207.98 123.76 206.58 122.52 206.64 118.53 C 205.71 118.71 204.78 118.87 203.84 119.01 C 202.15 117.63 204.45 114.59 203.22 112.93 C 200.21 113.24 201.39 116.11 202.08 117.95 C 203.41 121.16 202.91 124.22 202.39 127.54 C 201.82 128.30 201.31 128.09 200.87 126.90 C 203.21 123.20 202.04 119.59 199.82 116.22 L 199.08 116.07 C 197.43 118.01 194.29 120.90 194.63 123.60 C 193.94 124.46 194.26 128.18 193.03 127.82 C 193.14 123.55 194.30 120.21 197.21 117.06 C 198.88 115.40 196.59 112.27 197.71 110.76 C 198.51 110.48 199.34 110.30 200.22 110.22 C 201.48 106.79 201.88 103.16 203.10 99.72 L 204.28 99.56 C 204.32 100.64 204.38 101.71 204.47 102.77 C 204.74 99.77 206.37 98.68 207.98 96.48 C 206.48 96.00 205.29 98.87 203.88 99.19 C 204.20 96.83 205.29 96.15 203.67 93.91 C 204.35 92.41 204.56 92.49 203.62 91.00 C 204.56 87.73 206.58 90.00 209.00 88.61 Z" fill="#43613c" style="fill-opacity: 0.28;"/>
  <path d="M 168.44 92.60 C 172.00 91.66 175.37 92.63 177.00 96.08 C 177.62 99.31 174.97 100.51 172.80 102.11 C 173.37 105.22 174.96 108.23 175.60 111.42 L 176.92 111.84 L 178.86 112.07 C 178.22 112.72 177.54 113.33 176.84 113.92 C 176.25 114.17 175.65 114.42 175.06 114.68 C 171.70 116.87 173.16 119.80 176.01 121.46 C 179.79 122.74 180.74 120.28 183.17 118.11 C 184.00 117.39 184.50 116.07 185.75 116.07 C 185.48 119.22 182.53 119.78 181.11 122.11 C 180.93 123.20 182.48 124.11 183.02 124.99 C 185.87 128.34 185.65 133.02 187.08 136.97 C 188.31 139.90 187.50 142.67 190.09 144.93 C 189.37 145.62 188.66 146.32 187.95 147.01 C 186.52 147.69 186.46 148.39 187.78 149.10 L 188.16 150.89 C 189.78 151.39 191.08 150.02 192.91 150.78 C 193.99 152.00 194.91 153.13 195.15 154.81 C 195.73 158.43 196.33 162.08 196.73 165.73 C 194.72 166.06 195.06 164.06 194.28 162.74 L 194.34 161.16 C 194.28 159.48 194.56 156.69 193.18 155.49 C 192.84 155.13 192.48 154.78 192.11 154.46 C 194.37 152.71 191.90 151.43 190.00 152.00 L 188.28 152.12 L 187.32 152.23 C 185.21 154.23 183.71 157.04 182.81 159.78 L 181.37 160.18 C 182.30 156.45 184.56 153.84 186.68 150.78 C 186.13 149.84 185.47 148.99 185.02 147.99 C 185.81 145.83 187.54 144.51 186.83 142.07 C 185.95 138.30 184.40 134.87 183.96 130.96 C 183.74 127.73 181.38 124.00 178.00 123.39 C 173.95 124.80 171.67 126.54 170.85 130.93 C 170.26 132.58 169.82 134.28 169.39 135.97 C 168.34 139.84 167.33 143.71 166.57 147.65 L 165.12 147.93 C 164.95 145.60 166.31 143.23 166.77 140.92 C 167.46 136.82 168.66 132.86 169.95 128.91 C 170.19 128.31 170.45 127.72 170.73 127.13 C 172.06 125.43 173.76 124.36 175.42 123.04 C 173.96 121.78 171.66 120.10 171.63 117.98 C 171.65 115.72 173.06 114.60 174.29 112.93 L 173.86 110.80 C 173.28 108.26 172.25 105.40 171.05 103.09 C 165.88 101.92 166.84 108.94 163.75 110.23 C 163.28 107.75 165.67 104.91 166.82 102.83 C 167.27 101.72 165.90 100.36 165.70 99.20 C 165.19 97.74 165.09 94.74 167.28 94.81 C 167.56 96.06 167.59 97.37 167.38 98.74 C 167.95 97.07 167.74 95.46 169.65 94.71 C 168.50 94.24 167.25 94.07 168.44 92.60 Z" fill="#829d5c" style="fill-opacity: 0.28;"/>
  <path d="M 76.59 94.89 C 75.96 96.89 77.44 98.50 75.81 99.78 C 73.75 101.60 71.21 102.84 69.01 104.50 L 67.98 104.15 C 68.00 100.27 73.99 101.83 73.88 98.13 C 71.83 98.25 70.51 101.27 68.68 100.40 L 68.91 99.17 C 70.88 97.18 73.79 95.29 76.59 94.89 Z" fill="#73716f" style="fill-opacity: 0.28;"/>
  <path d="M 195.48 98.46 C 195.35 99.65 194.71 100.77 194.49 101.96 C 195.52 104.81 196.42 107.62 195.67 110.69 C 195.06 111.46 194.43 112.91 193.25 112.77 C 192.50 111.94 191.77 111.10 191.05 110.24 C 190.22 110.84 189.34 111.30 188.42 111.63 C 187.66 108.30 189.54 106.18 190.07 103.08 C 188.78 100.99 187.89 99.92 189.81 97.77 C 191.04 95.32 194.83 95.81 195.48 98.46 Z" fill="#92745c" style="fill-opacity: 0.28;"/>
  <path d="M 157.02 101.91 C 156.45 101.79 155.89 101.70 155.32 101.63 C 154.11 103.03 152.21 102.68 151.18 103.81 C 152.57 103.63 153.93 103.59 155.27 103.71 C 155.03 104.38 154.81 105.05 154.62 105.72 C 155.18 106.39 155.72 107.07 156.24 107.77 C 155.22 107.55 154.19 107.37 153.15 107.21 C 149.86 106.24 151.27 111.94 148.64 111.46 C 148.56 109.54 149.97 107.81 150.50 105.97 C 149.72 103.30 147.63 100.52 149.94 97.97 C 152.96 94.51 158.63 97.27 157.02 101.91 Z" fill="#626263" style="fill-opacity: 0.28;"/>
  <path d="M 171.24 97.05 L 172.01 96.65 L 172.78 97.02 L 172.77 97.82 L 172.01 98.22 L 171.24 97.85 L 171.24 97.05 Z" fill="#bae48f" style="fill-opacity: 0.28;"/>
  <path d="M 151.32 98.12 C 153.22 97.95 151.34 101.53 150.18 100.80 C 149.76 99.80 150.14 98.90 151.32 98.12 Z" fill="#b0b0b2" style="fill-opacity: 0.28;"/>
  <path d="M 51.09 100.98 C 51.41 104.67 50.68 108.32 50.98 112.06 C 49.95 112.64 48.27 114.80 47.10 114.09 C 47.38 109.30 46.20 104.01 47.42 99.41 C 48.72 97.51 51.05 99.08 51.09 100.98 Z" fill="#3c3835" style="fill-opacity: 0.28;"/>
  <path d="M 75.82 102.06 C 74.70 104.57 71.15 105.97 68.83 107.18 L 68.55 106.05 C 70.10 104.09 73.27 102.04 75.82 102.06 Z" fill="#63605d" style="fill-opacity: 0.28;"/>
  <path d="M 192.33 102.39 C 194.25 102.72 191.22 106.79 190.69 104.09 C 190.88 103.26 191.43 102.69 192.33 102.39 Z" fill="#d2c6ba" style="fill-opacity: 0.28;"/>
  <path d="M 171.05 103.09 C 172.25 105.40 173.28 108.26 173.86 110.80 C 172.34 112.53 172.41 114.81 170.78 116.57 C 170.47 118.37 170.68 119.95 169.41 121.44 C 167.71 123.27 169.57 125.55 170.73 127.13 C 170.45 127.72 170.19 128.31 169.95 128.91 C 169.15 128.77 168.36 128.61 167.57 128.42 C 166.78 127.40 166.39 125.71 165.11 125.32 C 163.76 125.33 162.42 125.50 161.07 125.82 C 161.14 121.87 162.86 117.78 164.01 114.02 L 164.33 114.62 C 165.19 110.54 167.63 105.60 171.05 103.09 Z" fill="#9bc164" style="fill-opacity: 0.28;"/>
  <path d="M 76.87 104.47 C 76.00 106.81 71.32 110.18 68.86 110.05 C 69.42 107.27 74.28 105.09 76.87 104.47 Z" fill="#787774" style="fill-opacity: 0.28;"/>
  <path d="M 193.28 106.07 L 194.05 105.68 L 194.83 106.05 L 194.85 106.85 L 194.07 107.22 L 193.29 106.85 L 193.28 106.07 Z" fill="#c8ae99" style="fill-opacity: 0.28;"/>
  <path d="M 153.15 107.21 C 154.19 107.37 155.22 107.55 156.24 107.77 C 158.28 110.54 156.56 112.29 154.99 114.57 C 155.67 114.40 156.36 114.23 157.04 114.07 L 157.37 114.73 C 157.68 120.12 157.53 125.55 157.87 130.95 C 155.40 131.32 157.40 125.74 155.08 125.39 C 153.82 126.68 153.61 127.02 151.80 126.60 C 149.51 126.42 149.90 124.19 147.80 123.10 C 148.61 121.50 148.64 119.82 148.82 118.08 C 146.41 119.79 148.19 124.16 146.81 126.74 L 146.19 126.57 C 145.17 122.03 146.65 116.24 148.08 111.83 L 149.06 111.74 C 149.30 112.38 149.52 113.03 149.74 113.68 C 150.75 111.46 152.11 109.42 153.15 107.21 Z" fill="#626567" style="fill-opacity: 0.28;"/>
  <path d="M 201.95 107.92 C 202.93 107.45 204.10 107.68 205.46 108.61 C 205.53 109.74 205.13 110.94 204.87 112.04 C 203.41 112.01 202.11 109.20 201.95 107.92 Z" fill="#a8bda3" style="fill-opacity: 0.28;"/>
  <path d="M 138.16 109.54 C 141.68 109.57 143.18 113.76 140.97 116.41 C 139.89 115.45 140.11 113.60 138.95 112.83 C 137.81 112.34 136.62 112.23 135.40 112.36 C 135.02 113.72 134.75 115.07 135.51 116.36 L 137.14 116.91 L 138.54 117.99 C 138.40 118.85 137.53 119.51 135.93 119.96 C 134.93 121.79 134.48 123.95 133.92 125.94 C 132.89 127.86 133.04 129.80 132.86 131.92 C 132.11 132.69 131.67 133.73 131.54 135.02 C 131.43 135.59 131.35 136.16 131.32 136.75 C 131.00 138.39 131.68 140.76 130.24 141.85 C 129.47 138.42 130.35 134.42 130.90 130.97 C 131.90 126.78 132.75 122.74 134.96 119.00 C 134.04 117.25 132.59 116.23 132.97 114.06 C 133.63 111.76 135.86 109.97 138.16 109.54 Z" fill="#877480" style="fill-opacity: 0.28;"/>
  <path d="M 210.13 109.15 L 210.66 108.61 C 210.72 111.26 211.83 114.55 211.16 117.06 L 209.97 117.00 C 209.38 114.39 209.35 111.73 210.13 109.15 Z" fill="#bbc9c0" style="fill-opacity: 0.28;"/>
  <path d="M 226.73 110.05 C 226.59 110.66 226.41 111.27 226.21 111.89 C 227.42 111.70 228.62 111.42 229.83 111.30 C 232.54 113.99 229.47 115.97 229.18 118.67 C 233.84 122.19 235.12 128.45 235.09 133.96 C 232.89 134.33 234.77 129.29 232.12 128.58 C 231.97 126.60 232.06 125.99 230.25 124.93 C 230.55 124.00 230.73 123.08 230.79 122.15 C 229.26 120.56 226.61 118.10 224.24 119.18 C 223.33 119.89 221.10 121.54 223.03 122.48 C 219.37 125.41 219.62 128.92 218.19 132.98 L 217.15 132.86 C 216.98 127.26 219.77 120.95 224.50 117.70 C 224.02 116.76 223.38 115.91 222.93 114.94 C 222.93 112.77 224.17 109.95 226.73 110.05 Z" fill="#b86464" style="fill-opacity: 0.28;"/>
  <path d="M 163.08 110.84 L 164.22 110.64 C 164.61 111.67 164.54 112.80 164.01 114.02 C 162.86 117.78 161.14 121.87 161.07 125.82 C 160.59 126.54 159.99 126.84 159.28 126.75 C 158.92 124.70 159.65 123.07 160.17 121.14 C 161.35 117.76 161.94 114.23 163.08 110.84 Z" fill="#818771" style="fill-opacity: 0.28;"/>
  <path d="M 173.86 110.80 L 174.29 112.93 C 173.06 114.60 171.65 115.72 171.63 117.98 C 171.66 120.10 173.96 121.78 175.42 123.04 C 173.76 124.36 172.06 125.43 170.73 127.13 C 169.57 125.55 167.71 123.27 169.41 121.44 C 170.68 119.95 170.47 118.37 170.78 116.57 C 172.41 114.81 172.34 112.53 173.86 110.80 Z" fill="#fefcf8" style="fill-opacity: 0.28;"/>
  <path d="M 185.08 115.01 C 183.56 114.50 182.77 113.21 181.04 113.18 C 181.33 113.71 181.63 114.23 181.95 114.75 L 181.19 115.12 C 179.87 113.90 178.63 113.44 176.84 113.92 C 177.54 113.33 178.22 112.72 178.86 112.07 L 176.92 111.84 C 179.33 110.97 185.64 111.17 185.08 115.01 Z" fill="#c8beb5" style="fill-opacity: 0.28;"/>
  <path d="M 135.40 112.36 C 136.62 112.23 137.81 112.34 138.95 112.83 C 140.11 113.60 139.89 115.45 140.97 116.41 C 140.59 117.20 140.17 117.98 139.71 118.74 C 138.84 118.15 138.04 117.46 137.14 116.91 L 135.51 116.36 C 134.75 115.07 135.02 113.72 135.40 112.36 Z" fill="#c984a9" style="fill-opacity: 0.28;"/>
  <path d="M 176.84 113.92 C 177.42 116.00 179.60 116.26 181.19 115.12 L 181.95 114.75 C 182.83 115.60 183.24 116.72 183.17 118.11 C 180.74 120.28 179.79 122.74 176.01 121.46 C 177.48 120.52 175.60 116.76 175.77 115.15 L 175.06 114.68 C 175.65 114.42 176.25 114.17 176.84 113.92 Z" fill="#d19864" style="fill-opacity: 0.28;"/>
  <path d="M 176.84 113.92 C 178.63 113.44 179.87 113.90 181.19 115.12 C 179.60 116.26 177.42 116.00 176.84 113.92 Z" fill="#926047" style="fill-opacity: 0.28;"/>
  <path d="M 175.06 114.68 L 175.77 115.15 C 175.60 116.76 177.48 120.52 176.01 121.46 C 173.16 119.80 171.70 116.87 175.06 114.68 Z" fill="#f9ede2" style="fill-opacity: 0.28;"/>
  <path d="M 199.08 116.07 L 199.82 116.22 C 202.04 119.59 203.21 123.20 200.87 126.90 C 199.63 126.87 198.39 126.85 197.15 126.83 C 196.53 124.97 196.67 124.33 194.63 123.60 C 194.29 120.90 197.43 118.01 199.08 116.07 Z" fill="#ecb9a3" style="fill-opacity: 0.28;"/>
  <path d="M 44.39 118.22 C 45.42 119.28 45.45 120.51 45.02 121.88 C 44.02 121.64 43.04 121.28 42.08 120.82 C 41.51 119.63 43.68 118.86 44.39 118.22 Z" fill="#74716e" style="fill-opacity: 0.28;"/>
  <path d="M 224.24 119.18 C 226.61 118.10 229.26 120.56 230.79 122.15 C 230.73 123.08 230.55 124.00 230.25 124.93 C 229.53 125.44 228.76 125.81 227.95 126.04 C 228.08 124.66 228.25 123.28 228.47 121.91 C 226.39 119.29 224.96 120.83 223.03 122.48 C 221.10 121.54 223.33 119.89 224.24 119.18 Z" fill="#e5b8b8" style="fill-opacity: 0.28;"/>
  <path d="M 139.32 120.68 C 140.73 122.33 139.63 125.58 139.57 127.64 L 138.92 128.56 C 138.22 129.44 136.65 130.32 137.29 131.64 C 137.86 133.13 138.78 134.49 139.24 136.02 C 139.19 137.47 137.81 138.61 137.41 139.99 C 139.13 143.51 138.32 145.97 137.61 149.64 C 136.51 149.74 135.45 149.69 134.43 149.49 C 133.66 148.34 133.04 147.11 132.48 145.85 C 132.38 144.98 132.29 144.11 132.19 143.23 C 133.65 141.21 131.95 138.79 131.32 136.75 C 131.35 136.16 131.43 135.59 131.54 135.02 C 133.49 137.29 133.28 132.88 132.86 131.92 C 133.04 129.80 132.89 127.86 133.92 125.94 C 135.86 124.36 136.18 119.90 139.32 120.68 Z" fill="#c785ae" style="fill-opacity: 0.28;"/>
  <path d="M 228.47 121.91 C 228.25 123.28 228.08 124.66 227.95 126.04 C 228.76 125.81 229.53 125.44 230.25 124.93 C 232.06 125.99 231.97 126.60 232.12 128.58 C 231.60 129.88 231.22 131.28 230.50 132.48 C 228.93 133.61 226.93 134.20 225.04 134.47 C 224.34 133.95 223.61 133.50 222.86 133.12 C 220.86 133.01 221.04 135.48 219.74 136.63 C 217.87 136.57 219.00 134.14 218.19 132.98 C 219.62 128.92 219.37 125.41 223.03 122.48 C 224.96 120.83 226.39 119.29 228.47 121.91 Z" fill="#cb6263" style="fill-opacity: 0.28;"/>
  <path d="M 176.90 125.35 C 178.27 125.43 179.65 125.68 181.02 126.10 C 181.57 128.25 182.43 130.05 183.45 132.00 C 183.00 133.44 182.05 134.59 181.44 135.99 C 182.11 138.69 184.22 142.17 183.11 144.96 C 182.83 145.51 182.28 145.71 181.47 145.53 C 180.55 143.90 180.20 142.12 179.61 140.36 C 179.21 140.52 178.81 140.70 178.42 140.90 C 178.15 140.13 177.77 139.40 177.30 138.71 C 177.55 136.66 175.70 136.27 174.61 137.82 C 173.17 138.08 171.75 138.42 170.41 138.99 C 170.05 137.99 169.71 136.98 169.39 135.97 C 169.82 134.28 170.26 132.58 170.85 130.93 C 173.25 129.40 174.59 126.95 176.90 125.35 Z" fill="#d69163" style="fill-opacity: 0.28;"/>
  <path d="M 213.25 127.53 C 213.53 129.08 213.97 130.54 214.42 132.04 C 213.44 139.31 214.14 146.71 213.13 154.04 C 212.77 155.47 213.08 157.18 211.04 157.05 C 212.10 150.96 212.13 144.98 211.90 138.79 C 212.22 135.59 212.82 130.32 210.23 127.90 L 209.76 127.46 C 207.15 127.88 205.60 130.52 205.88 133.12 C 205.58 134.79 205.29 136.41 204.77 138.02 C 202.82 138.23 204.02 135.03 203.96 133.97 C 204.42 131.05 205.03 128.39 207.69 126.71 C 209.56 125.13 211.60 126.32 213.25 127.53 Z" fill="#8a9095" style="fill-opacity: 0.28;"/>
  <path d="M 209.76 127.46 L 210.23 127.90 C 208.88 129.73 207.54 131.56 205.88 133.12 C 205.60 130.52 207.15 127.88 209.76 127.46 Z" fill="#d5eaf5" style="fill-opacity: 0.28;"/>
  <path d="M 139.57 127.64 C 140.69 128.74 140.88 129.39 140.95 130.97 C 141.61 139.48 142.24 148.49 140.90 156.94 L 139.92 156.94 C 139.82 150.67 140.16 144.30 139.92 138.01 C 139.67 134.84 138.99 131.75 138.92 128.56 L 139.57 127.64 Z" fill="#a8a1a4" style="fill-opacity: 0.28;"/>
  <path d="M 210.23 127.90 C 212.82 130.32 212.22 135.59 211.90 138.79 C 209.77 140.54 208.17 142.63 206.35 144.71 C 207.28 144.47 208.21 144.26 209.15 144.09 C 209.83 146.18 209.50 148.80 209.17 150.96 C 207.84 152.58 205.52 155.12 203.21 154.79 C 202.87 152.58 204.53 151.02 203.35 148.76 C 203.44 145.42 204.43 142.29 204.03 138.90 L 204.77 138.02 C 205.29 136.41 205.58 134.79 205.88 133.12 C 207.54 131.56 208.88 129.73 210.23 127.90 Z" fill="#6fb3cd" style="fill-opacity: 0.28;"/>
  <path d="M 132.86 131.92 C 133.28 132.88 133.49 137.29 131.54 135.02 C 131.67 133.73 132.11 132.69 132.86 131.92 Z" fill="#f5cfe4" style="fill-opacity: 0.28;"/>
  <path d="M 154.92 135.61 C 154.19 136.17 154.23 136.88 155.06 137.73 L 154.41 138.18 C 152.80 137.08 151.95 136.39 149.89 136.68 C 151.62 135.53 152.81 134.78 154.92 135.61 Z" fill="#cbc3b0" style="fill-opacity: 0.28;"/>
  <path d="M 154.92 135.61 C 156.49 136.66 158.73 137.66 157.97 139.98 C 157.54 141.33 156.86 145.26 154.96 144.97 L 155.03 143.18 C 156.14 141.51 156.78 139.23 155.06 137.73 C 154.23 136.88 154.19 136.17 154.92 135.61 Z" fill="#a49d78" style="fill-opacity: 0.28;"/>
  <path d="M 149.89 136.68 C 151.95 136.39 152.80 137.08 154.41 138.18 C 153.07 139.49 152.26 138.57 150.78 138.18 C 147.53 138.06 147.72 142.90 149.31 144.63 C 150.81 144.79 152.31 144.79 153.81 145.00 C 154.42 146.43 150.48 146.76 149.67 147.68 C 148.96 149.32 148.08 151.33 148.53 153.13 C 147.25 155.63 145.92 157.87 145.72 160.76 C 144.35 163.50 143.62 166.23 144.22 169.31 C 144.06 171.11 142.13 174.34 143.85 175.68 L 142.41 176.34 C 141.72 177.71 142.27 181.06 140.20 180.85 C 139.69 179.05 140.70 176.83 140.92 174.97 C 142.31 169.48 142.91 163.84 144.40 158.37 C 145.54 154.56 147.54 149.98 148.67 146.26 C 146.09 143.38 146.01 138.48 149.89 136.68 Z" fill="#928f7c" style="fill-opacity: 0.28;"/>
  <path d="M 177.30 138.71 C 176.14 139.07 175.24 138.77 174.61 137.82 C 175.70 136.27 177.55 136.66 177.30 138.71 Z" fill="#f4c8ae" style="fill-opacity: 0.28;"/>
  <path d="M 150.78 138.18 C 152.26 138.57 153.07 139.49 154.41 138.18 L 155.06 137.73 C 156.78 139.23 156.14 141.51 155.03 143.18 C 153.39 143.80 151.85 145.24 150.18 143.85 C 148.53 141.85 149.48 140.04 150.78 138.18 Z" fill="#cdc567" style="fill-opacity: 0.28;"/>
  <path d="M 174.61 137.82 C 175.24 138.77 176.14 139.07 177.30 138.71 C 177.77 139.40 178.15 140.13 178.42 140.90 C 177.94 141.99 177.44 143.06 176.93 144.13 C 177.27 146.12 178.90 147.84 178.98 149.99 C 179.08 152.57 179.21 155.23 178.85 157.79 L 177.08 158.36 C 176.60 156.35 176.88 154.98 177.61 153.13 C 178.73 150.90 177.12 147.81 175.82 145.97 C 174.70 145.34 173.25 146.64 172.33 147.25 L 171.70 149.02 C 171.13 151.75 171.51 154.38 170.20 157.02 C 169.59 157.27 168.98 157.51 168.35 157.73 C 168.47 153.74 169.80 149.14 171.72 145.65 C 171.02 143.37 170.55 141.41 170.41 138.99 C 171.75 138.42 173.17 138.08 174.61 137.82 Z" fill="#9b5f61" style="fill-opacity: 0.28;"/>
  <path d="M 44.68 139.31 C 44.92 140.33 44.57 141.10 43.64 141.64 C 37.69 146.06 30.63 148.53 24.30 151.30 C 23.65 158.92 25.02 167.05 23.68 174.71 C 21.79 174.86 22.28 173.40 22.07 172.03 C 22.36 164.83 21.99 157.54 22.37 150.35 C 28.71 147.45 35.05 144.76 40.86 140.82 C 42.05 139.96 43.20 139.38 44.68 139.31 Z" fill="#666664" style="fill-opacity: 0.28;"/>
  <path d="M 173.14 139.01 C 175.02 139.15 173.55 141.73 172.23 140.88 C 171.84 140.06 172.14 139.44 173.14 139.01 Z" fill="#d6a49d" style="fill-opacity: 0.28;"/>
  <path d="M 203.42 139.43 L 204.03 138.90 C 204.43 142.29 203.44 145.42 203.35 148.76 C 203.45 151.69 201.12 152.89 200.74 155.71 L 200.00 155.80 C 200.58 150.34 202.00 144.75 203.42 139.43 Z" fill="#757f87" style="fill-opacity: 0.28;"/>
  <path d="M 176.24 141.21 L 176.81 141.18 L 176.82 141.75 L 176.25 141.78 L 176.24 141.21 Z" fill="#c09090" style="fill-opacity: 0.28;"/>
  <path d="M 227.95 141.09 C 229.74 141.25 231.06 143.29 229.71 144.86 C 228.37 145.86 226.04 147.55 224.32 146.71 C 223.63 145.37 223.39 144.06 223.52 142.57 C 224.88 141.68 226.34 141.23 227.95 141.09 Z" fill="#485454" style="fill-opacity: 0.28;"/>
  <path d="M 118.02 143.21 C 120.70 143.48 120.64 147.56 118.94 148.93 C 117.77 148.97 116.61 148.62 115.46 148.50 L 115.43 149.42 C 116.31 149.38 117.19 149.33 118.07 149.28 C 120.01 150.69 120.25 152.89 120.04 155.13 L 119.19 154.79 L 118.70 154.09 L 118.37 153.62 C 117.62 153.59 116.86 153.63 116.10 153.73 C 115.59 152.48 115.60 151.53 114.25 150.89 C 112.72 147.65 114.90 144.25 118.02 143.21 Z" fill="#5e7789" style="fill-opacity: 0.28;"/>
  <path d="M 132.19 143.23 C 132.29 144.11 132.38 144.98 132.48 145.85 C 132.30 146.91 131.33 148.30 131.57 149.34 C 132.59 150.43 134.15 151.14 134.20 152.80 C 134.37 156.51 135.34 160.20 134.99 163.89 L 134.13 163.85 C 133.66 161.51 133.22 159.17 132.70 156.84 C 132.77 155.95 132.80 155.07 132.79 154.18 L 132.76 152.25 C 131.85 151.34 130.91 150.06 129.47 150.56 C 127.89 151.17 126.48 152.28 124.97 153.05 C 125.26 151.84 126.24 151.06 126.91 149.96 C 126.83 148.09 126.05 145.92 127.25 144.24 C 128.43 143.17 130.70 143.33 132.19 143.23 Z" fill="#696a85" style="fill-opacity: 0.28;"/>
  <path d="M 97.96 144.67 C 99.86 143.96 102.63 144.67 104.04 146.08 C 105.05 147.81 104.30 150.67 103.31 152.32 C 102.63 152.69 101.94 153.06 101.25 153.41 C 104.60 155.89 105.70 159.45 107.14 163.19 C 107.44 165.42 107.76 167.48 108.52 169.60 L 107.41 169.80 C 107.27 168.90 107.12 168.01 106.95 167.12 C 106.26 167.30 105.57 167.47 104.87 167.63 C 105.52 166.83 106.08 165.98 106.56 165.11 C 105.82 162.80 104.91 160.34 103.90 158.17 C 100.35 158.28 103.19 160.83 104.38 161.89 C 104.39 163.91 104.85 165.92 104.58 167.93 C 103.59 167.87 102.89 167.36 102.49 166.39 L 102.54 168.63 L 101.10 168.41 C 99.62 167.11 98.50 167.95 96.77 168.01 C 96.11 166.83 96.29 166.48 94.85 166.64 C 94.39 167.58 93.76 168.31 92.97 168.83 C 91.55 167.76 90.42 166.30 89.25 164.97 C 91.54 161.65 95.22 159.13 97.80 155.96 C 97.61 155.23 97.12 154.56 96.34 153.95 C 95.14 152.73 95.10 151.64 95.08 150.00 C 95.87 150.07 96.49 150.78 96.94 152.14 C 97.47 152.45 98.01 152.73 98.57 152.98 C 98.55 151.51 96.73 150.23 96.09 148.93 C 96.25 147.33 96.93 145.89 97.96 144.67 Z" fill="#191a19" style="fill-opacity: 0.28;"/>
  <path d="M 190.09 144.93 C 191.21 145.05 192.27 145.31 193.29 145.71 C 193.68 147.34 193.02 149.11 192.91 150.78 C 191.08 150.02 189.78 151.39 188.16 150.89 L 187.78 149.10 L 187.95 147.01 C 188.66 146.32 189.37 145.62 190.09 144.93 Z" fill="#9b5a88" style="fill-opacity: 0.28;"/>
  <path d="M 175.82 145.97 C 177.12 147.81 178.73 150.90 177.61 153.13 C 176.25 151.56 176.49 148.35 174.88 147.26 C 173.79 147.85 172.91 148.64 171.70 149.02 L 172.33 147.25 C 173.25 146.64 174.70 145.34 175.82 145.97 Z" fill="#ddb6b9" style="fill-opacity: 0.28;"/>
  <path d="M 100.99 147.20 L 101.95 147.21 L 102.42 147.97 L 101.93 148.72 L 101.00 148.73 L 100.51 147.97 L 100.99 147.20 Z" fill="#a9a8cf" style="fill-opacity: 0.28;"/>
  <path d="M 174.88 147.26 C 176.49 148.35 176.25 151.56 177.61 153.13 C 176.88 154.98 176.60 156.35 177.08 158.36 C 174.34 159.30 172.65 157.90 170.20 157.02 C 171.51 154.38 171.13 151.75 171.70 149.02 C 172.91 148.64 173.79 147.85 174.88 147.26 Z" fill="#c66261" style="fill-opacity: 0.28;"/>
  <path d="M 187.95 147.01 L 187.78 149.10 C 186.46 148.39 186.52 147.69 187.95 147.01 Z" fill="#d5bdc8" style="fill-opacity: 0.28;"/>
  <path d="M 226.87 147.03 L 227.93 147.10 C 230.94 150.65 230.82 154.31 230.79 158.75 C 229.52 158.35 230.37 155.64 229.35 155.29 C 229.20 156.15 229.03 157.02 228.85 157.88 C 227.21 158.46 224.49 156.70 222.79 156.21 C 222.05 152.49 226.89 151.00 226.87 147.03 Z" fill="#42655f" style="fill-opacity: 0.28;"/>
  <path d="M 152.99 147.99 L 153.85 148.05 C 156.87 151.30 157.55 155.13 157.68 159.42 C 159.90 159.57 160.47 157.18 162.98 157.86 C 165.63 158.81 164.98 160.76 164.69 163.01 C 167.88 166.51 167.69 170.56 167.82 175.01 C 164.96 174.98 166.30 171.78 165.91 169.97 C 165.71 168.33 165.00 165.32 163.04 165.05 C 160.54 164.68 158.16 166.35 158.24 168.98 C 158.10 171.87 157.16 174.51 156.20 177.20 C 155.58 177.86 154.90 178.42 154.14 178.87 C 153.94 176.23 154.93 173.42 155.65 170.88 L 155.93 170.05 C 156.60 168.06 157.42 166.26 158.31 164.38 C 156.86 162.67 157.94 161.13 156.66 159.46 C 155.06 157.11 156.45 154.29 154.71 151.80 C 154.23 150.99 153.67 150.24 153.01 149.54 L 152.99 147.99 Z" fill="#735c56" style="fill-opacity: 0.28;"/>
  <path d="M 153.01 149.54 C 153.67 150.24 154.23 150.99 154.71 151.80 C 153.56 153.72 154.63 155.18 155.17 157.07 C 155.51 158.39 154.44 159.77 154.17 161.08 C 153.34 163.69 154.22 166.06 152.37 168.32 C 153.55 168.92 154.80 169.32 155.93 170.05 L 155.65 170.88 C 154.85 172.22 154.13 173.80 152.99 174.87 C 151.98 174.56 150.97 174.24 149.96 173.92 C 148.85 174.35 147.94 175.23 146.92 175.86 C 145.90 175.84 144.87 175.78 143.85 175.68 C 142.13 174.34 144.06 171.11 144.22 169.31 C 146.00 168.13 145.39 166.57 145.82 164.78 C 146.14 163.49 146.11 162.15 145.72 160.76 C 145.92 157.87 147.25 155.63 148.53 153.13 C 149.83 150.70 150.27 150.22 153.01 149.54 Z" fill="#d3d36b" style="fill-opacity: 0.28;"/>
  <path d="M 228.23 150.36 C 229.77 150.24 229.35 153.00 227.98 153.12 C 226.42 152.92 227.54 150.93 228.23 150.36 Z" fill="#a9bcbb" style="fill-opacity: 0.28;"/>
  <path d="M 114.25 150.89 C 115.60 151.53 115.59 152.48 116.10 153.73 C 116.86 153.63 117.62 153.59 118.37 153.62 L 118.70 154.09 C 117.70 154.62 116.46 156.65 118.05 157.20 C 118.85 156.98 119.23 156.18 119.19 154.79 L 120.04 155.13 C 120.02 156.06 119.93 156.99 119.77 157.92 C 118.51 157.71 117.76 158.41 117.53 160.02 C 115.61 159.67 113.61 159.88 111.77 159.24 C 109.70 155.24 115.95 154.89 114.25 150.89 Z" fill="#5b879f" style="fill-opacity: 0.28;"/>
  <path d="M 129.99 151.38 C 130.91 152.33 131.81 153.29 132.79 154.18 C 132.80 155.07 132.77 155.95 132.70 156.84 C 132.29 157.62 131.04 158.51 131.73 159.44 C 132.35 160.79 134.56 163.46 132.02 164.12 C 131.53 163.57 131.03 163.02 130.53 162.48 C 128.26 162.57 127.65 162.90 125.60 161.44 C 124.07 160.20 123.41 163.12 122.25 163.80 C 122.56 160.64 123.13 157.39 124.22 154.39 L 124.76 154.07 C 125.09 154.63 125.41 155.19 125.73 155.75 C 126.66 154.32 128.00 151.25 129.99 151.38 Z" fill="#7183b1" style="fill-opacity: 0.28;"/>
  <path d="M 154.71 151.80 C 156.45 154.29 155.06 157.11 156.66 159.46 C 157.94 161.13 156.86 162.67 158.31 164.38 C 157.42 166.26 156.60 168.06 155.93 170.05 C 154.80 169.32 153.55 168.92 152.37 168.32 C 154.22 166.06 153.34 163.69 154.17 161.08 C 154.44 159.77 155.51 158.39 155.17 157.07 C 154.63 155.18 153.56 153.72 154.71 151.80 Z" fill="#fdfef9" style="fill-opacity: 0.28;"/>
  <path d="M 187.32 152.23 L 188.28 152.12 C 187.44 154.66 185.39 157.54 183.62 159.54 L 182.81 159.78 C 183.71 157.04 185.21 154.23 187.32 152.23 Z" fill="#e4c5da" style="fill-opacity: 0.28;"/>
  <path d="M 188.28 152.12 L 190.00 152.00 C 190.31 153.09 191.02 153.90 192.11 154.46 C 192.48 154.78 192.84 155.13 193.18 155.49 C 192.39 157.29 191.50 158.77 191.98 160.82 L 194.34 161.16 L 194.28 162.74 C 193.50 163.99 193.35 166.49 192.06 167.20 C 190.41 166.34 189.30 166.28 187.48 166.52 C 186.23 167.92 185.85 170.95 183.37 169.63 C 182.78 167.58 185.18 165.35 181.96 164.96 C 181.85 163.55 181.70 162.16 181.22 160.82 L 181.37 160.18 L 182.81 159.78 L 183.62 159.54 C 185.39 157.54 187.44 154.66 188.28 152.12 Z" fill="#ad5a94" style="fill-opacity: 0.28;"/>
  <path d="M 190.00 152.00 C 191.90 151.43 194.37 152.71 192.11 154.46 C 191.02 153.90 190.31 153.09 190.00 152.00 Z" fill="#e8d7e6" style="fill-opacity: 0.28;"/>
  <path d="M 96.34 153.95 C 97.12 154.56 97.61 155.23 97.80 155.96 C 95.22 159.13 91.54 161.65 89.25 164.97 C 90.42 166.30 91.55 167.76 92.97 168.83 C 93.76 168.31 94.39 167.58 94.85 166.64 C 96.29 166.48 96.11 166.83 96.77 168.01 C 98.50 167.95 99.62 167.11 101.10 168.41 C 99.92 168.48 99.05 169.08 97.98 169.51 C 95.26 168.51 93.17 169.77 90.48 169.57 C 90.27 168.77 90.08 167.96 89.91 167.14 C 88.44 167.12 88.95 171.56 86.97 171.02 C 86.60 167.46 89.28 163.75 90.39 160.34 C 91.54 157.16 94.02 156.07 96.34 153.95 Z" fill="#c2bfca" style="fill-opacity: 0.28;"/>
  <path d="M 118.70 154.09 L 119.19 154.79 C 119.23 156.18 118.85 156.98 118.05 157.20 C 116.46 156.65 117.70 154.62 118.70 154.09 Z" fill="#b5cddd" style="fill-opacity: 0.28;"/>
  <path d="M 193.18 155.49 C 194.56 156.69 194.28 159.48 194.34 161.16 L 191.98 160.82 C 191.50 158.77 192.39 157.29 193.18 155.49 Z" fill="#fce0f2" style="fill-opacity: 0.28;"/>
  <path d="M 119.77 157.92 C 119.66 159.18 119.51 160.66 118.83 161.75 C 118.24 161.89 117.81 161.31 117.53 160.02 C 117.76 158.41 118.51 157.71 119.77 157.92 Z" fill="#747d7f" style="fill-opacity: 0.28;"/>
  <path d="M 161.72 160.24 C 162.45 160.28 163.19 160.32 163.91 160.37 C 164.25 162.69 161.01 163.21 159.36 162.60 C 158.76 160.61 159.91 160.04 161.72 160.24 Z" fill="#ae6967" style="fill-opacity: 0.28;"/>
  <path d="M 145.72 160.76 C 146.11 162.15 146.14 163.49 145.82 164.78 C 145.39 166.57 146.00 168.13 144.22 169.31 C 143.62 166.23 144.35 163.50 145.72 160.76 Z" fill="#e5e3ae" style="fill-opacity: 0.28;"/>
  <path d="M 181.22 160.82 C 181.70 162.16 181.85 163.55 181.96 164.96 C 180.93 167.52 181.17 170.01 180.66 172.68 L 179.11 172.92 C 179.93 168.90 180.20 164.79 181.22 160.82 Z" fill="#998c94" style="fill-opacity: 0.28;"/>
  <path d="M 163.04 165.05 C 163.62 165.63 164.15 166.24 164.64 166.89 C 164.36 169.52 164.94 173.11 163.33 175.32 C 161.04 176.21 158.66 177.55 156.20 177.20 C 157.16 174.51 158.10 171.87 158.24 168.98 C 158.16 166.35 160.54 164.68 163.04 165.05 Z" fill="#dc6a63" style="fill-opacity: 0.28;"/>
</svg>